﻿Иванов;ФАИС;200000;5;8;9
Петров;МТФ;350000;7;7;3
Лужков;ЭФ;400000;8;8;9;7
Лермонов;ГЭФ;500000;7;3;8;5;7
Пушкин;ФАИС;400000;8;5;3
Толстой;МТФ;500000;7;6;8;9;10
Гоголь;ЭФ;350000;3;6;7
Горький;ЭФ;340000;8;6;5;7
Чехов;ФАИС;480000;9;3;6;5
Тургенев;ФАИС;500000;3;5;6;5
Достоевский;ГЭФ;470000;6;3;9
Куприн;ФАИС;475000;3;5;8;8;9
Некрасов;МТФ;500000;9;8;8
Бубин;ФАИС;495000;5;7;7